<?xml version="1.0" encoding="utf-8"?>
<!-- Generator: Adobe Illustrator 24.1.0, SVG Export Plug-In . SVG Version: 6.00 Build 0)  -->
<svg version="1.1" id="Layer_1" xmlns="http://www.w3.org/2000/svg" xmlns:xlink="http://www.w3.org/1999/xlink" x="0px" y="0px"
	 viewBox="0 0 297.5 245.62" style="enable-background:new 0 0 297.5 245.62;" xml:space="preserve">
<style type="text/css">
	.st0{fill:#DCD995;}
	.st1{fill:#444EA1;}
	.st2{fill:#5E5979;}
	.st3{fill:#FDFDFD;}
	.st4{font-family:'BalooPaaji-Regular';}
	.st5{font-size:25.7714px;}
</style>
<path class="st0" d="M210.8,50.97c2.58,0.94,5.29,2.35,6.13-2.03c0.09-0.45,0.5-0.85,0.81-1.23c0.04-0.05,0.57,0.19,0.56,0.23
	c-2.5,10.95,7.99,2.91,10.18,6.97c-1.03,2.17-0.75,4.23,0.92,5.88c1.97,1.94,4.23,1.14,6.42,0.29c5.37,2.27,5.44,8.3,6.37,12.14
	c6.15,25.42,12.72,50.87,12.43,77.34c-0.09,8.39-1.52,16.25-9.08,21.51c-0.42,0.29-0.68,0.83-1.01,1.26
	c0.62,0.22,1.22,0.53,1.85,0.63c11.12,1.73,22.26,3.42,33.38,5.16c0.84,0.13,1.63,0.57,2.44,0.87c-0.89,0.25-1.78,0.74-2.66,0.72
	c-47.65-1.13-95.29-2.39-142.94-3.42c-30.61-0.66-61.22-0.91-91.83-1.53c-8.01-0.16-16.01-0.97-24.02-1.53
	c-0.49-0.03-0.95-0.47-1.43-0.71c0.46-0.25,0.91-0.7,1.38-0.73c5.13-0.39,10.26-0.71,15.4-1.06c7.86-0.53,4.86-7.61,6.96-11.61
	c0.42-0.8,0.45-1.8,0.66-2.71c0.42,1.02,1.34,2.12,1.19,3.05c-1.55,9.55,3.42,11.08,11.14,9.18c4.35-1.07,1.68-4.9,2.41-7.33
	c1.16-3.88,2.65-6.88,7.01-7.02c3.63-0.11,6.18,2.34,6.06,5.62c-0.28,7.86,4.82,9.01,10.2,7.82c6.3-1.4,18.48,5.76,16.46-9.84
	c-0.04-0.32,0.33-0.69,0.51-1.03c0.39,0.56,0.92,1.08,1.15,1.7c0.6,1.62,1.06,3.29,1.62,4.93c0.16,0.46,0.47,0.88,0.71,1.31
	c0.08-0.53,0.2-1.06,0.22-1.6c0.13-4.53-0.31-9.17,0.53-13.56c0.55-2.91,2.34-6.75,6.31-6.14c7.2,1.11,7.19,7.7,8.71,12.97
	c0.86,2.97-1.49,6.4,1.3,9.1c-0.02-3.54,0.6-7.22-0.19-10.58c-1.58-6.72,0.56-16.88-11.94-15.04c-0.6,0.09-1.23,0.54-1.68,0.98
	c-1.56,1.54-3.05,3.15-4.57,4.73c-0.08-0.32-0.29-0.68-0.2-0.94c1.1-3.22,2.37-6.32,5.66-7.99c8.15-4.13,17.82,4.33,18.57,16.73
	c0.54,8.92,2.5,13.67,13.73,12.98c32.06-1.97,64.22-2.26,96.33-3.36c4.6-0.16,7.02-3.36,7.14-7.78c0.79-28.9-3.76-57.16-10.68-85.08
	c-2.3-9.27-11.45-6.87-17.56-8.26c-17.63-3.99-35.55-6.7-53.37-9.82c-1.35-0.24-4.13-1.8-4.02,0.52c0.17,3.59,0.04,9.13,4,9.99
	c14.23,3.08,28.68,5.1,43.04,7.59c0.96,0.17,1.84,0.84,2.75,1.28c-0.98,0.07-1.97,0.29-2.92,0.19c-15.17-1.65-30.66-2.04-45.37-5.63
	c-6.41-1.56-6.2-11.58-7.14-18.4c-0.07-0.53,1.43-1.92,1.98-1.81c7.38,1.46,14.73,3.11,22.08,4.72c0.81,0.18,1.61,0.45,2.42,0.57
	c4.81,0.7,9.62,1.36,14.44,2.03c-5.41-1.8-10.81-3.6-16.22-5.39c-4.24-1.4-8.5-2.76-12.74-4.14c4.36,0.32,8.76,0.42,13.09,0.99
	c11.43,1.52,22.83,3.26,34.23,4.91C210.32,50.71,210.56,50.84,210.8,50.97z M67.43,166.01c-0.74-1.46-1.27-2.53-1.81-3.59
	c-0.52,1.4-1.23,2.76-1.47,4.2c-0.12,0.74,0.59,1.61,0.92,2.43C65.84,168.06,66.61,167.07,67.43,166.01z"/>
<path class="st1" d="M65.73,134.5c17.74-10.76,32.68-26.35,53.24-32.17c9.09-2.57,18.1,0.59,26.52,4.6
	c1.14,0.54,2.71,1.49,2.53-0.82c-0.98-12.58-1.47-25.32-6.67-37.09c-3.39-7.67-8.53-4.86-12.99-1.11
	c-25.01,20.97-49.91,42.07-74.88,63.09c-0.7,0.59-1.67,0.86-2.51,1.27c0.4-0.68,0.67-1.49,1.2-2.04
	c23.12-23.37,46.1-46.88,69.53-69.93c4.91-4.83,11.45-8.48,19.07-5.46c10.5,4.16,12.85,14.03,14.47,23.38
	c1.95,11.26,2.34,22.8,3.13,34.24c0.24,3.46,1.41,7.66-2.94,9.74c-3.68,1.77-5.9-1.37-8.23-3.2c-18.98-14.9-36.48-7.9-54.17,2.95
	c-8.52,5.22-17.79,9.2-26.72,13.75C66.11,135.29,65.92,134.9,65.73,134.5z"/>
<path class="st0" d="M39.45,178.83c37.33-2.17,74.12,2.08,110.16,11.16c27.91,7.03,53.87,18.87,74.84,39.58
	c0.33,0.33,0.49,0.83,0.73,1.26c-0.52-0.17-1.14-0.22-1.54-0.54c-28.22-22.72-61.78-32.61-96.47-38.99
	c-22.11-4.07-44.53-6.69-66.92-8.91c-13.52-1.34-27.23-0.66-40.86-0.92c-0.67-0.01-1.33-0.33-1.99-0.51
	c0.55-0.25,1.1-0.68,1.67-0.72C25.87,179.73,32.66,179.29,39.45,178.83z"/>
<path class="st1" d="M62.52,106.28c1.02-0.76,2.05-1.53,3.07-2.29c0.76-0.62,1.53-1.23,2.29-1.85c0.6-0.54,1.2-1.08,1.8-1.62
	c0.4-0.3,0.8-0.59,1.19-0.89c2.79-2.54,5.58-5.08,8.37-7.62c0.41-0.44,0.82-0.88,1.22-1.32c0.38-0.22,0.77-0.44,1.15-0.66
	c0.6-0.79,1.2-1.59,1.79-2.38c0,0,0.18-0.14,0.18-0.14c0.59-0.45,1.18-0.89,1.77-1.34c0.11-0.05,0.18-0.13,0.21-0.25
	c1.42-1.6,2.84-3.21,4.26-4.82c0.1-0.04,0.16-0.1,0.19-0.21c0.62-0.57,1.25-1.13,1.87-1.7c0.12-0.19,0.24-0.38,0.35-0.57
	c0.23-0.29,0.47-0.58,0.7-0.88c13.24-12.86,26.27-25.94,39.81-38.46c6.13-5.67,12.6,0.54,18.94,1.1c-0.2,0.35-0.49,1.02-0.6,1
	c-19.62-4.99-25.29,13.48-36.57,22.13c-25.47,19.53-46.12,44.34-70.12,65.52c-2.32,2.05-2.95,4.46-3.41,7.17
	c-2.66-2.63-0.71-5.33-0.13-8c0.31-0.41,0.63-0.83,0.94-1.24c0.48-0.42,0.97-0.84,1.45-1.25c0.18-0.23,0.36-0.45,0.53-0.68
	c0.99-1.11,1.98-2.21,2.97-3.32c0.18-0.22,0.36-0.43,0.54-0.65c0.77-0.74,1.54-1.49,2.31-2.23c0,0,0.15-0.19,0.15-0.19
	c1.35-1.33,2.69-2.66,4.04-3.99c0.13-0.06,0.24-0.15,0.31-0.27c2.28-2.19,4.57-4.38,6.85-6.57c0.26-0.25,0.52-0.5,0.78-0.74
	C62,106.8,62.26,106.54,62.52,106.28z"/>
<path class="st0" d="M162.17,104.58c-0.95-8.89-1.77-16.36-2.51-23.83c-0.06-0.61,0.4-1.27,0.62-1.91c0.35,0.51,0.91,0.99,1.01,1.55
	c1.59,9.09,3.27,18.17,4.58,27.3c0.39,2.68,1.66,2.94,3.8,3.03c17.25,0.76,34.5,1.56,51.75,2.46c1.26,0.07,2.47,0.97,3.71,1.48
	c-1.09,0.01-2.19,0.01-3.28,0.02c-18.43,0.14-36.86,0.5-55.28,0.35C156.75,114.95,164.32,106.72,162.17,104.58z"/>
<path class="st1" d="M210.8,50.97c-0.24-0.13-0.48-0.27-0.72-0.4c2-13.22,9.38-21.64,22.7-23.58c14.06-2.05,27,5.79,30.66,17.64
	c4.06,13.14-1.26,27.12-12.46,32.81c-0.17-0.39-0.34-0.79-0.52-1.18c10.09-7.06,13.71-16.95,10.43-28.45
	c-3.71-13-13.69-18.93-26.78-18.06C221.24,30.59,213.41,38.23,210.8,50.97z"/>
<path class="st1" d="M195.03,133.59c12.3-1.1,24.59-2.2,36.89-3.27c0.72-0.06,1.46,0.14,2.19,0.22c-0.57,0.36-1.09,0.87-1.72,1.05
	c-19.65,5.82-39.47,6.78-59.47,1.92c-0.54-0.13-1.03-0.49-1.54-0.75c0.63-0.11,1.25-0.32,1.88-0.32c7.23-0.02,14.46-0.01,21.7-0.01
	C194.98,132.82,195.01,133.2,195.03,133.59z"/>
<path class="st1" d="M196,140.45c12.08-1.04,24.15-2.09,36.23-3.1c0.85-0.07,1.74,0.19,2.61,0.3c-0.73,0.4-1.43,0.95-2.21,1.16
	c-19.25,5.33-38.66,5.88-58.21,1.9c-0.88-0.18-1.68-0.69-2.52-1.05c0.86-0.07,1.72-0.2,2.58-0.21c7.16-0.02,14.32-0.01,21.47-0.01
	C195.97,139.78,195.99,140.11,196,140.45z"/>
<path class="st1" d="M221.14,127.77c-0.37,0.06-0.75,0.11-1.12,0.17c-2.29,0.27-4.57,0.53-6.86,0.8c-0.56,0.07-1.11,0.14-1.67,0.2
	c-0.93,0.12-1.87,0.24-2.81,0.36c-12.24,0.65-24.45,0.71-36.42-2.52c-0.47-0.13-0.93-0.34-1.39-0.51c0.53-0.1,1.06-0.27,1.59-0.28
	c16.21-0.34,32.42-0.66,48.62-0.99c1.28-0.11,2.56-0.22,3.83-0.33c1.05-0.1,2.09-0.2,3.13-0.3c0.59,0.11,1.19,0.22,1.78,0.33
	c-0.56,0.49-1.13,0.99-1.69,1.48c-0.55,0.08-1.1,0.16-1.65,0.25c-0.28,0.09-0.55,0.19-0.83,0.28c-0.55,0.11-1.11,0.21-1.66,0.32
	C223.05,127.27,222.1,127.52,221.14,127.77z"/>
<path class="st1" d="M219.08,44.39c6.39-7.41,14.13-10.49,23.55-6.66c8.37,3.41,13.04,9.73,12.25,19.01
	c-0.55,6.35-3.11,11.88-9.21,15.01c-0.57,0.3-1.25,0.4-1.88,0.59c0.47-0.48,0.86-1.06,1.41-1.41c6.79-4.29,8.65-10.82,7.49-18.16
	c-1.23-7.79-6.99-11.89-14.01-13.93c-7.31-2.11-13.27,0.92-18.22,6.31c-0.68,0.74-1.57,1.29-2.37,1.93
	c0.02-0.49,0.05-0.97,0.07-1.45C218.48,45.21,218.78,44.8,219.08,44.39z"/>
<path class="st1" d="M169.85,151.09c-0.35,0.29-2.1,1.06-2.57,2.31c-0.39,1.03,0.39,2.94,1.27,3.89c0.82,0.89,2.45,1.02,3.73,1.48
	c-1.38,0.43-2.77,1.26-4.12,1.2c-2.74-0.13-4.26-2.4-4.4-4.66c-0.11-1.71,0.97-4.11,2.33-5.12c1.2-0.9,3.51-0.38,5.32-0.32
	c0.44,0.01,0.87,0.68,1.3,1.05C172.18,150.95,171.65,150.98,169.85,151.09z"/>
<path class="st1" d="M235.35,154.91c-0.31,2.87-1.92,4.94-5.03,5.22c-1.18,0.11-2.47-0.9-3.7-1.4c0.91-0.26,1.98-0.3,2.68-0.84
	c0.96-0.74,2.21-1.82,2.27-2.82c0.06-1.14-0.78-2.67-1.72-3.43c-0.8-0.65-2.29-0.43-3.48-0.6c1.3-0.54,2.85-1.81,3.85-1.47
	c1.83,0.62,3.38,2.14,4.94,3.41C235.47,153.24,235.29,154.09,235.35,154.91z"/>
<path class="st1" d="M235.82,61.09c-2.19,0.85-4.45,1.64-6.42-0.29c-1.68-1.65-1.96-3.71-0.92-5.88c1.77-2.08,3.99-3.02,6.34-1.39
	C237.72,55.52,237.02,58.35,235.82,61.09z"/>
<path class="st1" d="M242.52,61.7c2.09-4.63,1.77-9.13-1.7-12.84c-3.65-3.9-8.26-3.39-12.85-1.71c-0.15-0.36-0.31-0.72-0.46-1.08
	c5.14-2.77,10.22-2.67,14.29,1.59c3.89,4.07,5.16,9,1.68,14.2C243.16,61.81,242.84,61.76,242.52,61.7z"/>
<path class="st2" d="M40.87,128.21c-0.58,2.68-2.53,5.38,0.13,8c-0.25,1-0.5,2-0.75,3c-0.43-0.12-1.23-0.23-1.23-0.35
	c-0.03-2.87-0.08-5.76,0.15-8.62C39.23,129.52,40.27,128.88,40.87,128.21z"/>
<path class="st1" d="M230.29,51.14c0.5,0.15,0,0-0.5-0.15c0.57-0.28,1.27-0.92,1.69-0.77c2.33,0.84,4.91,1.5,6.76,3
	c1.02,0.83,0.77,3.2,1.09,4.88c-0.28,0.05-0.56,0.09-0.84,0.14c-0.09-0.98,0.1-2.11-0.32-2.93
	C236.79,52.59,234.47,51.18,230.29,51.14z"/>
<path class="st0" d="M228.15,126.18c0.56-0.49,1.13-0.99,1.69-1.48c-0.59-0.11-1.19-0.22-1.78-0.33c2.04-0.29,4.08-0.58,6.13-0.83
	c0.09-0.01,0.23,0.36,0.34,0.56C232.4,124.79,230.28,125.49,228.15,126.18z"/>
<path class="st0" d="M60.96,107.81c-2.28,2.19-4.57,4.38-6.85,6.57C56.4,112.19,58.68,110,60.96,107.81z"/>
<path class="st1" d="M227.51,46.07c0.15,0.36,0.31,0.72,0.46,1.08c-1.38,1.37-2.77,2.74-4.15,4.12c-0.06-0.22-0.25-0.54-0.17-0.64
	C224.92,49.09,226.22,47.58,227.51,46.07z"/>
<path class="st2" d="M65.73,134.5c0.19,0.4,0.38,0.79,0.57,1.19c-1.48,0.59-2.96,1.19-4.44,1.78
	C63.15,136.48,64.44,135.49,65.73,134.5z"/>
<path class="st0" d="M213.16,128.74c2.29-0.27,4.57-0.53,6.86-0.8C217.73,128.21,215.45,128.47,213.16,128.74z"/>
<path class="st0" d="M89.83,81.1c-1.42,1.61-2.84,3.21-4.26,4.82C86.99,84.31,88.41,82.71,89.83,81.1z"/>
<path class="st1" d="M250.46,76.26c0.17,0.39,0.35,0.79,0.52,1.18c-1.38,0.46-2.77,0.92-4.15,1.38
	C248.04,77.96,249.25,77.11,250.46,76.26z"/>
<path class="st1" d="M242.52,61.7c0.32,0.05,0.64,0.11,0.96,0.16c-0.88,1.02-1.75,2.06-2.65,3.05c-0.06,0.07-0.41-0.12-0.62-0.18
	C240.98,63.72,241.75,62.71,242.52,61.7z"/>
<path class="st0" d="M53.8,114.65c-1.35,1.33-2.69,2.66-4.04,3.99C51.11,117.31,52.45,115.98,53.8,114.65z"/>
<path class="st0" d="M46.76,121.71c-0.99,1.11-1.98,2.22-2.97,3.32C44.78,123.93,45.77,122.82,46.76,121.71z"/>
<path class="st0" d="M224.92,124.68c-1.28,0.11-2.56,0.22-3.83,0.33C222.37,124.9,223.65,124.79,224.92,124.68z"/>
<path class="st0" d="M221.14,127.77c0.95-0.25,1.91-0.5,2.86-0.75C223.05,127.27,222.1,127.52,221.14,127.77z"/>
<path class="st0" d="M49.61,118.83c-0.77,0.74-1.54,1.49-2.31,2.23C48.07,120.32,48.84,119.57,49.61,118.83z"/>
<path class="st0" d="M208.69,129.31c0.94-0.12,1.87-0.24,2.81-0.36C210.56,129.06,209.62,129.19,208.69,129.31z"/>
<path class="st0" d="M67.88,102.14c-0.76,0.62-1.53,1.23-2.29,1.85C66.36,103.37,67.12,102.75,67.88,102.14z"/>
<path class="st0" d="M83.41,87.65c-0.6,0.79-1.2,1.59-1.79,2.38C82.22,89.23,82.81,88.44,83.41,87.65z"/>
<path class="st0" d="M91.89,79.2c-0.62,0.57-1.25,1.13-1.87,1.7C90.64,80.33,91.26,79.76,91.89,79.2z"/>
<path class="st0" d="M43.26,125.71c-0.49,0.42-0.97,0.84-1.45,1.25C42.29,126.55,42.77,126.13,43.26,125.71z"/>
<path class="st0" d="M85.36,86.17c-0.59,0.45-1.18,0.89-1.77,1.34C84.18,87.06,84.77,86.61,85.36,86.17z"/>
<path class="st0" d="M80.47,90.69c-0.41,0.44-0.82,0.88-1.22,1.32C79.65,91.57,80.06,91.13,80.47,90.69z"/>
<path class="st0" d="M70.88,99.63c-0.4,0.3-0.8,0.59-1.19,0.89C70.08,100.22,70.48,99.93,70.88,99.63z"/>
<path class="st0" d="M219.08,44.39c-0.3,0.41-0.6,0.83-0.91,1.24C218.48,45.21,218.78,44.8,219.08,44.39z"/>
<path class="st0" d="M225.67,126.71c0.28-0.09,0.56-0.19,0.83-0.28C226.22,126.52,225.94,126.61,225.67,126.71z"/>
<path class="st0" d="M92.94,77.75c-0.24,0.29-0.47,0.58-0.7,0.88C92.48,78.33,92.71,78.04,92.94,77.75z"/>
<path class="st0" d="M62.52,106.28c-0.26,0.26-0.52,0.52-0.78,0.79C62,106.8,62.26,106.54,62.52,106.28z"/>
<path class="st3" d="M67.43,166.01c-0.82,1.06-1.59,2.05-2.36,3.04c-0.33-0.81-1.05-1.69-0.92-2.43c0.24-1.44,0.95-2.8,1.47-4.2
	C66.16,163.48,66.7,164.54,67.43,166.01z"/>
<text transform="matrix(1 0 0 1 40.9983 215.8551)" class="st1 st4 st5">RouteMe2</text>
</svg>
